{
   "abstract" : "It's new $module",
   "author" : [
      "Alexander Karelas <karjala@cpan.org>"
   ],
   "dynamic_config" : 0,
   "generated_by" : "Minilla/v3.1.10, CPAN::Meta::Converter version 2.150010",
   "license" : [
      "perl_5"
   ],
   "meta-spec" : {
      "url" : "http://search.cpan.org/perldoc?CPAN::Meta::Spec",
      "version" : 2
   },
   "name" : "Mojo-Rx",
   "no_index" : {
      "directory" : [
         "t",
         "xt",
         "inc",
         "share",
         "eg",
         "examples",
         "author",
         "builder"
      ]
   },
   "prereqs" : {
      "configure" : {
         "requires" : {
            "Module::Build::Tiny" : "0.035"
         }
      },
      "develop" : {
         "requires" : {
            "Test::CPAN::Meta" : "0",
            "Test::MinimumVersion::Fast" : "0.04",
            "Test::PAUSE::Permissions" : "0.07",
            "Test::Pod" : "1.41",
            "Test::Spellunker" : "v0.2.7"
         }
      },
      "runtime" : {
         "requires" : {
            "Mojolicious" : "0",
            "perl" : "5.010"
         }
      },
      "test" : {
         "requires" : {
            "Test2::Suite" : "0"
         }
      }
   },
   "release_status" : "unstable",
   "resources" : {
      "bugtracker" : {
         "web" : "https://gitlab.com/karjala/p5-mojo-rx/issues"
      },
      "homepage" : "https://gitlab.com/karjala/p5-mojo-rx",
      "repository" : {
         "type" : "git",
         "url" : "git://gitlab.com/karjala/p5-mojo-rx.git",
         "web" : "https://gitlab.com/karjala/p5-mojo-rx"
      }
   },
   "version" : "v0.13.0",
   "x_authority" : "cpan:KARJALA",
   "x_contributors" : [
      "Felipe Gasper <felipe@felipegasper.com>"
   ],
   "x_serialization_backend" : "JSON::PP version 4.02",
   "x_static_install" : 1
}
